[

  {
    "name": "api",
    "entryPoint": [
      "sh",
      "-c"
    ],
    "command": [
      "while true; do echo `hostname -i | awk '{ print $1 }'` | nc -q 0 -l -p 4540; done"
    ],
    "essential": true,
    "memory": 300,
    "cpu": 10,
    "image": "sukhchander\/ecs-koin-wallet-demo"
  },

  {
    "name": "httpserver",
    "environment": [
      {
        "name": "API_NAME",
        "value": "api"
      }
    ],
    "portMappings": [
      {
        "hostPort": 80,
        "containerPort": 8080,
        "protocol": "tcp"
      }
    ],
    "entryPoint": [
      "bash",
      "-c"
    ],
    "command": [
      "set -x; sleep 10; mkdir -p /home/www; cd /home/www; git clone https://sukhchander@bitbucket.org/sukhchander/koin-wallet-www.git; cd /home/www/koin-wallet-www; npm install http-server -g; http-server -s .;"
    ],
    "essential": true,
    "memory": 300,
    "cpu": 10,
    "image": "sukhchander\/ecs-koin-wallet-demo"
  }

]
